<?xml version="1.0" encoding="UTF-8" standalone="no"?><svg xmlns="http://www.w3.org/2000/svg" xmlns:xlink="http://www.w3.org/1999/xlink" contentScriptType="application/ecmascript" contentStyleType="text/css" height="910.2px" preserveAspectRatio="none" style="width:1611px;height:910px;" version="1.1" viewBox="0 0 1611 910" width="1611px" zoomAndPan="magnify"><defs><filter height="300%" id="f1d70s77l8md0o" width="300%" x="-1" y="-1"><feGaussianBlur result="blurOut" stdDeviation="1.2"/><feColorMatrix in="blurOut" result="blurOut2" type="matrix" values="0 0 0 0 0 0 0 0 0 0 0 0 0 0 0 0 0 0 .4 0"/><feOffset dx="2.4" dy="2.4" in="blurOut2" result="blurOut3"/><feBlend in="SourceGraphic" in2="blurOut3" mode="normal"/></filter></defs><g><rect fill="#FFFFFF" filter="url(#f1d70s77l8md0o)" height="794.4938" style="stroke: #A80036; stroke-width: 0.6;" width="6" x="25.2" y="57.893"/><rect fill="#FFFFFF" filter="url(#f1d70s77l8md0o)" height="220.077" style="stroke: #A80036; stroke-width: 0.6;" width="6" x="264.6" y="103.452"/><rect fill="#FFFFFF" filter="url(#f1d70s77l8md0o)" height="26.7727" style="stroke: #A80036; stroke-width: 0.6;" width="6" x="264.6" y="341.1152"/><rect fill="#FFFFFF" filter="url(#f1d70s77l8md0o)" height="262.8492" style="stroke: #A80036; stroke-width: 0.6;" width="6" x="264.6" y="394.6605"/><rect fill="#FFFFFF" filter="url(#f1d70s77l8md0o)" height="171.8906" style="stroke: #A80036; stroke-width: 0.6;" width="6" x="264.6" y="675.0961"/><rect fill="#FFFFFF" filter="url(#f1d70s77l8md0o)" height="157.5316" style="stroke: #A80036; stroke-width: 0.6;" width="6" x="528" y="121.0383"/><rect fill="#FFFFFF" filter="url(#f1d70s77l8md0o)" height="227.6766" style="stroke: #A80036; stroke-width: 0.6;" width="6" x="528" y="412.2469"/><rect fill="#FFFFFF" filter="url(#f1d70s77l8md0o)" height="154.3043" style="stroke: #A80036; stroke-width: 0.6;" width="6" x="528" y="692.6824"/><rect fill="#FFFFFF" filter="url(#f1d70s77l8md0o)" height="18" style="stroke: #A80036; stroke-width: 0.6;" width="6" x="669" y="138.6246"/><rect fill="#FFFFFF" filter="url(#f1d70s77l8md0o)" height="18" style="stroke: #A80036; stroke-width: 0.6;" width="6" x="669" y="224.9836"/><rect fill="#FFFFFF" filter="url(#f1d70s77l8md0o)" height="18" style="stroke: #A80036; stroke-width: 0.6;" width="6" x="746.1" y="181.8041"/><rect fill="#FFFFFF" filter="url(#f1d70s77l8md0o)" height="18" style="stroke: #A80036; stroke-width: 0.6;" width="6" x="834.3" y="260.5699"/><rect fill="#FFFFFF" filter="url(#f1d70s77l8md0o)" height="18" style="stroke: #A80036; stroke-width: 0.6;" width="6" x="834.3" y="432.8332"/><rect fill="#FFFFFF" filter="url(#f1d70s77l8md0o)" height="168.5039" style="stroke: #A80036; stroke-width: 0.6;" width="6" x="997.5" y="471.4195"/><rect fill="#FFFFFF" filter="url(#f1d70s77l8md0o)" height="16.8" style="stroke: #A80036; stroke-width: 0.6;" width="6" x="1000.5" y="519.1922"/><rect fill="#FFFFFF" filter="url(#f1d70s77l8md0o)" height="68.359" style="stroke: #A80036; stroke-width: 0.6;" width="6" x="997.5" y="710.2688"/><rect fill="#FFFFFF" filter="url(#f1d70s77l8md0o)" height="54.7723" style="stroke: #A80036; stroke-width: 0.6;" width="6" x="1302.3" y="585.1512"/><rect fill="#FFFFFF" filter="url(#f1d70s77l8md0o)" height="68.359" style="stroke: #A80036; stroke-width: 0.6;" width="6" x="1302.3" y="778.6277"/><line style="stroke: #A80036; stroke-width: 0.6; stroke-dasharray: 5.0,5.0;" x1="28.2" x2="28.2" y1="51.893" y2="857.7867"/><line style="stroke: #A80036; stroke-width: 0.6; stroke-dasharray: 5.0,5.0;" x1="267.3" x2="267.3" y1="51.893" y2="857.7867"/><line style="stroke: #A80036; stroke-width: 0.6; stroke-dasharray: 5.0,5.0;" x1="530.7" x2="530.7" y1="51.893" y2="857.7867"/><line style="stroke: #A80036; stroke-width: 0.6; stroke-dasharray: 5.0,5.0;" x1="672" x2="672" y1="51.893" y2="857.7867"/><line style="stroke: #A80036; stroke-width: 0.6; stroke-dasharray: 5.0,5.0;" x1="748.8" x2="748.8" y1="51.893" y2="857.7867"/><line style="stroke: #A80036; stroke-width: 0.6; stroke-dasharray: 5.0,5.0;" x1="837" x2="837" y1="51.893" y2="857.7867"/><line style="stroke: #A80036; stroke-width: 0.6; stroke-dasharray: 5.0,5.0;" x1="932.4" x2="932.4" y1="51.893" y2="857.7867"/><line style="stroke: #A80036; stroke-width: 0.6; stroke-dasharray: 5.0,5.0;" x1="1000.2" x2="1000.2" y1="51.893" y2="857.7867"/><line style="stroke: #A80036; stroke-width: 0.6; stroke-dasharray: 5.0,5.0;" x1="1121.1" x2="1121.1" y1="51.893" y2="857.7867"/><line style="stroke: #A80036; stroke-width: 0.6; stroke-dasharray: 5.0,5.0;" x1="1305" x2="1305" y1="51.893" y2="857.7867"/><line style="stroke: #A80036; stroke-width: 0.6; stroke-dasharray: 5.0,5.0;" x1="1575.9" x2="1575.9" y1="614.5441" y2="857.7867"/><text fill="#000000" font-family="sans-serif" font-size="8.4" lengthAdjust="spacingAndGlyphs" textLength="43.2" x="4.8" y="50.1211">Freelancer</text><ellipse cx="28.2" cy="7.8" fill="#FEFECE" filter="url(#f1d70s77l8md0o)" rx="4.8" ry="4.8" style="stroke: #A80036; stroke-width: 1.2;"/><path d="M28.2,12.6 L28.2,28.8 M20.4,17.4 L36,17.4 M28.2,28.8 L20.4,37.8 M28.2,28.8 L36,37.8 " fill="none" filter="url(#f1d70s77l8md0o)" style="stroke: #A80036; stroke-width: 1.2;"/><text fill="#000000" font-family="sans-serif" font-size="8.4" lengthAdjust="spacingAndGlyphs" textLength="43.2" x="4.8" y="865.3078">Freelancer</text><ellipse cx="28.2" cy="873.0797" fill="#FEFECE" filter="url(#f1d70s77l8md0o)" rx="4.8" ry="4.8" style="stroke: #A80036; stroke-width: 1.2;"/><path d="M28.2,877.8797 L28.2,894.0797 M20.4,882.6797 L36,882.6797 M28.2,894.0797 L20.4,903.0797 M28.2,894.0797 L36,903.0797 " fill="none" filter="url(#f1d70s77l8md0o)" style="stroke: #A80036; stroke-width: 1.2;"/><rect fill="#FEFECE" filter="url(#f1d70s77l8md0o)" height="18.293" style="stroke: #A80036; stroke-width: 0.8999999999999999;" width="103.8" x="214.5" y="30.6"/><text fill="#000000" font-family="sans-serif" font-size="8.4" lengthAdjust="spacingAndGlyphs" textLength="95.4" x="218.7" y="42.9211">:EfectuarCandidaturaUI</text><rect fill="#FEFECE" filter="url(#f1d70s77l8md0o)" height="18.293" style="stroke: #A80036; stroke-width: 0.8999999999999999;" width="103.8" x="214.5" y="857.1867"/><text fill="#000000" font-family="sans-serif" font-size="8.4" lengthAdjust="spacingAndGlyphs" textLength="95.4" x="218.7" y="869.5078">:EfectuarCandidaturaUI</text><rect fill="#FEFECE" filter="url(#f1d70s77l8md0o)" height="18.293" style="stroke: #A80036; stroke-width: 0.8999999999999999;" width="137.4" x="461.1" y="30.6"/><text fill="#000000" font-family="sans-serif" font-size="8.4" lengthAdjust="spacingAndGlyphs" textLength="129" x="465.3" y="42.9211">:EfectuarCandidaturaController</text><rect fill="#FEFECE" filter="url(#f1d70s77l8md0o)" height="18.293" style="stroke: #A80036; stroke-width: 0.8999999999999999;" width="137.4" x="461.1" y="857.1867"/><text fill="#000000" font-family="sans-serif" font-size="8.4" lengthAdjust="spacingAndGlyphs" textLength="129" x="465.3" y="869.5078">:EfectuarCandidaturaController</text><rect fill="#FEFECE" filter="url(#f1d70s77l8md0o)" height="18.293" style="stroke: #A80036; stroke-width: 0.8999999999999999;" width="55.2" x="643.2" y="30.6"/><text fill="#000000" font-family="sans-serif" font-size="8.4" lengthAdjust="spacingAndGlyphs" textLength="46.8" x="647.4" y="42.9211">:Plataforma</text><rect fill="#FEFECE" filter="url(#f1d70s77l8md0o)" height="18.293" style="stroke: #A80036; stroke-width: 0.8999999999999999;" width="55.2" x="643.2" y="857.1867"/><text fill="#000000" font-family="sans-serif" font-size="8.4" lengthAdjust="spacingAndGlyphs" textLength="46.8" x="647.4" y="869.5078">:Plataforma</text><rect fill="#FEFECE" filter="url(#f1d70s77l8md0o)" height="28.1859" style="stroke: #A80036; stroke-width: 0.8999999999999999;" width="82.2" x="706.8" y="20.707"/><text fill="#000000" font-family="sans-serif" font-size="8.4" lengthAdjust="spacingAndGlyphs" textLength="22.2" x="736.8" y="33.0281">rfree:</text><text fill="#000000" font-family="sans-serif" font-size="8.4" lengthAdjust="spacingAndGlyphs" textLength="73.8" x="711" y="42.9211">RegistoFreelancer</text><rect fill="#FEFECE" filter="url(#f1d70s77l8md0o)" height="28.1859" style="stroke: #A80036; stroke-width: 0.8999999999999999;" width="82.2" x="706.8" y="857.1867"/><text fill="#000000" font-family="sans-serif" font-size="8.4" lengthAdjust="spacingAndGlyphs" textLength="22.2" x="736.8" y="869.5078">rfree:</text><text fill="#000000" font-family="sans-serif" font-size="8.4" lengthAdjust="spacingAndGlyphs" textLength="73.8" x="711" y="879.4008">RegistoFreelancer</text><rect fill="#FEFECE" filter="url(#f1d70s77l8md0o)" height="28.1859" style="stroke: #A80036; stroke-width: 0.8999999999999999;" width="77.4" x="797.4" y="20.707"/><text fill="#000000" font-family="sans-serif" font-size="8.4" lengthAdjust="spacingAndGlyphs" textLength="21.6" x="825.3" y="33.0281">ranu:</text><text fill="#000000" font-family="sans-serif" font-size="8.4" lengthAdjust="spacingAndGlyphs" textLength="69" x="801.6" y="42.9211">RegistoAnuncios</text><rect fill="#FEFECE" filter="url(#f1d70s77l8md0o)" height="28.1859" style="stroke: #A80036; stroke-width: 0.8999999999999999;" width="77.4" x="797.4" y="857.1867"/><text fill="#000000" font-family="sans-serif" font-size="8.4" lengthAdjust="spacingAndGlyphs" textLength="21.6" x="825.3" y="869.5078">ranu:</text><text fill="#000000" font-family="sans-serif" font-size="8.4" lengthAdjust="spacingAndGlyphs" textLength="69" x="801.6" y="879.4008">RegistoAnuncios</text><rect fill="#FEFECE" filter="url(#f1d70s77l8md0o)" height="28.1859" style="stroke: #A80036; stroke-width: 0.8999999999999999;" width="76.2" x="893.4" y="20.707"/><text fill="#000000" font-family="sans-serif" font-size="8.4" lengthAdjust="spacingAndGlyphs" textLength="36" x="913.5" y="33.0281">listaAnu:</text><text fill="#000000" font-family="sans-serif" font-size="8.4" lengthAdjust="spacingAndGlyphs" textLength="65.4" x="900" y="42.9211">List&lt;Anuncios&gt;</text><rect fill="#FEFECE" filter="url(#f1d70s77l8md0o)" height="28.1859" style="stroke: #A80036; stroke-width: 0.8999999999999999;" width="76.2" x="893.4" y="857.1867"/><text fill="#000000" font-family="sans-serif" font-size="8.4" lengthAdjust="spacingAndGlyphs" textLength="36" x="913.5" y="869.5078">listaAnu:</text><text fill="#000000" font-family="sans-serif" font-size="8.4" lengthAdjust="spacingAndGlyphs" textLength="65.4" x="900" y="879.4008">List&lt;Anuncios&gt;</text><rect fill="#FEFECE" filter="url(#f1d70s77l8md0o)" height="28.1859" style="stroke: #A80036; stroke-width: 0.8999999999999999;" width="42.6" x="978" y="20.707"/><text fill="#000000" font-family="sans-serif" font-size="8.4" lengthAdjust="spacingAndGlyphs" textLength="18" x="990.3" y="33.0281">anu:</text><text fill="#000000" font-family="sans-serif" font-size="8.4" lengthAdjust="spacingAndGlyphs" textLength="34.2" x="982.2" y="42.9211">Anuncio</text><rect fill="#FEFECE" filter="url(#f1d70s77l8md0o)" height="28.1859" style="stroke: #A80036; stroke-width: 0.8999999999999999;" width="42.6" x="978" y="857.1867"/><text fill="#000000" font-family="sans-serif" font-size="8.4" lengthAdjust="spacingAndGlyphs" textLength="18" x="990.3" y="869.5078">anu:</text><text fill="#000000" font-family="sans-serif" font-size="8.4" lengthAdjust="spacingAndGlyphs" textLength="34.2" x="982.2" y="879.4008">Anuncio</text><rect fill="#FEFECE" filter="url(#f1d70s77l8md0o)" height="28.1859" style="stroke: #A80036; stroke-width: 0.8999999999999999;" width="51.6" x="1094.1" y="20.707"/><text fill="#000000" font-family="sans-serif" font-size="8.4" lengthAdjust="spacingAndGlyphs" textLength="21" x="1109.4" y="33.0281">freel:</text><text fill="#000000" font-family="sans-serif" font-size="8.4" lengthAdjust="spacingAndGlyphs" textLength="43.2" x="1098.3" y="42.9211">Freelancer</text><rect fill="#FEFECE" filter="url(#f1d70s77l8md0o)" height="28.1859" style="stroke: #A80036; stroke-width: 0.8999999999999999;" width="51.6" x="1094.1" y="857.1867"/><text fill="#000000" font-family="sans-serif" font-size="8.4" lengthAdjust="spacingAndGlyphs" textLength="21" x="1109.4" y="869.5078">freel:</text><text fill="#000000" font-family="sans-serif" font-size="8.4" lengthAdjust="spacingAndGlyphs" textLength="43.2" x="1098.3" y="879.4008">Freelancer</text><rect fill="#FEFECE" filter="url(#f1d70s77l8md0o)" height="18.293" style="stroke: #A80036; stroke-width: 0.8999999999999999;" width="84.6" x="1261.8" y="30.6"/><text fill="#000000" font-family="sans-serif" font-size="8.4" lengthAdjust="spacingAndGlyphs" textLength="76.2" x="1266" y="42.9211">:ListaCandidaturas</text><rect fill="#FEFECE" filter="url(#f1d70s77l8md0o)" height="18.293" style="stroke: #A80036; stroke-width: 0.8999999999999999;" width="84.6" x="1261.8" y="857.1867"/><text fill="#000000" font-family="sans-serif" font-size="8.4" lengthAdjust="spacingAndGlyphs" textLength="76.2" x="1266" y="869.5078">:ListaCandidaturas</text><rect fill="#FEFECE" filter="url(#f1d70s77l8md0o)" height="28.1859" style="stroke: #A80036; stroke-width: 0.8999999999999999;" width="59.4" x="1545.3" y="857.1867"/><text fill="#000000" font-family="sans-serif" font-size="8.4" lengthAdjust="spacingAndGlyphs" textLength="22.2" x="1563.9" y="869.5078">cand:</text><text fill="#000000" font-family="sans-serif" font-size="8.4" lengthAdjust="spacingAndGlyphs" textLength="51" x="1549.5" y="879.4008">Candidatura</text><rect fill="#FFFFFF" filter="url(#f1d70s77l8md0o)" height="794.4938" style="stroke: #A80036; stroke-width: 0.6;" width="6" x="25.2" y="57.893"/><rect fill="#FFFFFF" filter="url(#f1d70s77l8md0o)" height="220.077" style="stroke: #A80036; stroke-width: 0.6;" width="6" x="264.6" y="103.452"/><rect fill="#FFFFFF" filter="url(#f1d70s77l8md0o)" height="26.7727" style="stroke: #A80036; stroke-width: 0.6;" width="6" x="264.6" y="341.1152"/><rect fill="#FFFFFF" filter="url(#f1d70s77l8md0o)" height="262.8492" style="stroke: #A80036; stroke-width: 0.6;" width="6" x="264.6" y="394.6605"/><rect fill="#FFFFFF" filter="url(#f1d70s77l8md0o)" height="171.8906" style="stroke: #A80036; stroke-width: 0.6;" width="6" x="264.6" y="675.0961"/><rect fill="#FFFFFF" filter="url(#f1d70s77l8md0o)" height="157.5316" style="stroke: #A80036; stroke-width: 0.6;" width="6" x="528" y="121.0383"/><rect fill="#FFFFFF" filter="url(#f1d70s77l8md0o)" height="227.6766" style="stroke: #A80036; stroke-width: 0.6;" width="6" x="528" y="412.2469"/><rect fill="#FFFFFF" filter="url(#f1d70s77l8md0o)" height="154.3043" style="stroke: #A80036; stroke-width: 0.6;" width="6" x="528" y="692.6824"/><rect fill="#FFFFFF" filter="url(#f1d70s77l8md0o)" height="18" style="stroke: #A80036; stroke-width: 0.6;" width="6" x="669" y="138.6246"/><rect fill="#FFFFFF" filter="url(#f1d70s77l8md0o)" height="18" style="stroke: #A80036; stroke-width: 0.6;" width="6" x="669" y="224.9836"/><rect fill="#FFFFFF" filter="url(#f1d70s77l8md0o)" height="18" style="stroke: #A80036; stroke-width: 0.6;" width="6" x="746.1" y="181.8041"/><rect fill="#FFFFFF" filter="url(#f1d70s77l8md0o)" height="18" style="stroke: #A80036; stroke-width: 0.6;" width="6" x="834.3" y="260.5699"/><rect fill="#FFFFFF" filter="url(#f1d70s77l8md0o)" height="18" style="stroke: #A80036; stroke-width: 0.6;" width="6" x="834.3" y="432.8332"/><rect fill="#FFFFFF" filter="url(#f1d70s77l8md0o)" height="168.5039" style="stroke: #A80036; stroke-width: 0.6;" width="6" x="997.5" y="471.4195"/><rect fill="#FFFFFF" filter="url(#f1d70s77l8md0o)" height="16.8" style="stroke: #A80036; stroke-width: 0.6;" width="6" x="1000.5" y="519.1922"/><rect fill="#FFFFFF" filter="url(#f1d70s77l8md0o)" height="68.359" style="stroke: #A80036; stroke-width: 0.6;" width="6" x="997.5" y="710.2688"/><rect fill="#FFFFFF" filter="url(#f1d70s77l8md0o)" height="54.7723" style="stroke: #A80036; stroke-width: 0.6;" width="6" x="1302.3" y="585.1512"/><rect fill="#FFFFFF" filter="url(#f1d70s77l8md0o)" height="68.359" style="stroke: #A80036; stroke-width: 0.6;" width="6" x="1302.3" y="778.6277"/><path d="M1308,60.893 L1308,84.893 L1441.2,84.893 L1441.2,66.893 L1435.2,60.893 L1308,60.893 " fill="#FBFB77" filter="url(#f1d70s77l8md0o)" style="stroke: #A80036; stroke-width: 0.6;"/><path d="M1435.2,60.893 L1435.2,66.893 L1441.2,66.893 L1435.2,60.893 " fill="#FBFB77" style="stroke: #A80036; stroke-width: 0.6;"/><text fill="#000000" font-family="sans-serif" font-size="7.8" lengthAdjust="spacingAndGlyphs" textLength="120.6" x="1311.6" y="71.434">este objeto pertence ao anúncio</text><text fill="#000000" font-family="sans-serif" font-size="7.8" lengthAdjust="spacingAndGlyphs" textLength="111.6" x="1311.6" y="80.6203">indicado como "anu:Anuncio"</text><polygon fill="#A80036" points="257.4,101.052,263.4,103.452,257.4,105.852,259.8,103.452" style="stroke: #A80036; stroke-width: 0.6;"/><line style="stroke: #A80036; stroke-width: 0.6;" x1="31.2" x2="261" y1="103.452" y2="103.452"/><text fill="#000000" font-family="sans-serif" font-size="7.8" font-weight="bold" lengthAdjust="spacingAndGlyphs" textLength="5.4" x="35.4" y="100.6066">1</text><text fill="#000000" font-family="sans-serif" font-size="7.8" lengthAdjust="spacingAndGlyphs" textLength="100.2" x="43.2" y="100.6066">inicia efectuar candidatura</text><polygon fill="#A80036" points="520.8,118.6383,526.8,121.0383,520.8,123.4383,523.2,121.0383" style="stroke: #A80036; stroke-width: 0.6;"/><line style="stroke: #A80036; stroke-width: 0.6;" x1="270.6" x2="524.4" y1="121.0383" y2="121.0383"/><text fill="#000000" font-family="sans-serif" font-size="7.8" font-weight="bold" lengthAdjust="spacingAndGlyphs" textLength="5.4" x="274.8" y="118.193">2</text><text fill="#000000" font-family="sans-serif" font-size="7.8" lengthAdjust="spacingAndGlyphs" textLength="176.4" x="282.6" y="118.193">listaAnu = getAnunciosElegiveisDoFreelancer()</text><polygon fill="#A80036" points="661.8,136.2246,667.8,138.6246,661.8,141.0246,664.2,138.6246" style="stroke: #A80036; stroke-width: 0.6;"/><line style="stroke: #A80036; stroke-width: 0.6;" x1="534" x2="665.4" y1="138.6246" y2="138.6246"/><text fill="#000000" font-family="sans-serif" font-size="7.8" font-weight="bold" lengthAdjust="spacingAndGlyphs" textLength="5.4" x="538.2" y="135.7793">3</text><text fill="#000000" font-family="sans-serif" font-size="7.8" lengthAdjust="spacingAndGlyphs" textLength="115.8" x="546" y="135.7793">rfree = getRegistoFreelancers()</text><polygon fill="#A80036" points="738.9,179.4041,744.9,181.8041,738.9,184.2041,741.3,181.8041" style="stroke: #A80036; stroke-width: 0.6;"/><line style="stroke: #A80036; stroke-width: 0.6;" x1="534" x2="742.5" y1="181.8041" y2="181.8041"/><text fill="#000000" font-family="sans-serif" font-size="7.8" font-weight="bold" lengthAdjust="spacingAndGlyphs" textLength="5.4" x="538.2" y="178.9588">4</text><text fill="#000000" font-family="sans-serif" font-size="7.8" lengthAdjust="spacingAndGlyphs" textLength="127.2" x="546" y="178.9588">freel=getFreelancerByEmail(email)</text><path d="M754.8,164.4246 L754.8,188.4246 L981,188.4246 L981,170.4246 L975,164.4246 L754.8,164.4246 " fill="#FBFB77" filter="url(#f1d70s77l8md0o)" style="stroke: #A80036; stroke-width: 0.6;"/><path d="M975,164.4246 L975,170.4246 L981,170.4246 L975,164.4246 " fill="#FBFB77" style="stroke: #A80036; stroke-width: 0.6;"/><text fill="#000000" font-family="sans-serif" font-size="7.8" lengthAdjust="spacingAndGlyphs" textLength="136.2" x="758.4" y="174.9656">O email foi obtido através do objeto</text><text fill="#000000" font-family="sans-serif" font-size="7.8" lengthAdjust="spacingAndGlyphs" textLength="213.6" x="758.4" y="184.152">SessaoUtilizador como demonstrado noutros diagramas.</text><polygon fill="#A80036" points="661.8,222.5836,667.8,224.9836,661.8,227.3836,664.2,224.9836" style="stroke: #A80036; stroke-width: 0.6;"/><line style="stroke: #A80036; stroke-width: 0.6;" x1="534" x2="665.4" y1="224.9836" y2="224.9836"/><text fill="#000000" font-family="sans-serif" font-size="7.8" font-weight="bold" lengthAdjust="spacingAndGlyphs" textLength="5.4" x="538.2" y="222.1383">5</text><text fill="#000000" font-family="sans-serif" font-size="7.8" lengthAdjust="spacingAndGlyphs" textLength="108" x="546" y="222.1383">ranu = getRegistoAnuncios()</text><polygon fill="#A80036" points="827.1,258.1699,833.1,260.5699,827.1,262.9699,829.5,260.5699" style="stroke: #A80036; stroke-width: 0.6;"/><line style="stroke: #A80036; stroke-width: 0.6;" x1="534" x2="830.7" y1="260.5699" y2="260.5699"/><text fill="#000000" font-family="sans-serif" font-size="7.8" font-weight="bold" lengthAdjust="spacingAndGlyphs" textLength="5.4" x="538.2" y="257.7246">6</text><text fill="#000000" font-family="sans-serif" font-size="7.8" lengthAdjust="spacingAndGlyphs" textLength="188.4" x="546" y="257.7246">listaAnu=getAnunciosElegiveisDoFreelancer(freel)</text><rect fill="#FFFFFF" filter="url(#f1d70s77l8md0o)" height="24.3727" style="stroke: #000000; stroke-width: 1.2;" width="170.4" x="795.6" y="283.3699"/><polygon fill="#EEEEEE" points="795.6,283.3699,834,283.3699,834,287.5699,828,293.5699,795.6,293.5699,795.6,283.3699" style="stroke: #000000; stroke-width: 1.2;"/><text fill="#000000" font-family="sans-serif" font-size="7.8" font-weight="bold" lengthAdjust="spacingAndGlyphs" textLength="11.4" x="803.4" y="292.1109">ref</text><text fill="#000000" font-family="sans-serif" font-size="7.8" lengthAdjust="spacingAndGlyphs" textLength="165.6" x="799.2" y="303.5109">SD_getAnunciosElegiveisDoFreelancer(freel)</text><polygon fill="#A80036" points="37.8,321.1289,31.8,323.5289,37.8,325.9289,35.4,323.5289" style="stroke: #A80036; stroke-width: 0.6;"/><line style="stroke: #A80036; stroke-width: 0.6; stroke-dasharray: 2.0,2.0;" x1="34.2" x2="267" y1="323.5289" y2="323.5289"/><text fill="#000000" font-family="sans-serif" font-size="7.8" font-weight="bold" lengthAdjust="spacingAndGlyphs" textLength="5.4" x="41.4" y="320.6836">7</text><text fill="#000000" font-family="sans-serif" font-size="7.8" lengthAdjust="spacingAndGlyphs" textLength="188.4" x="49.2" y="320.6836">seleccionar anuncio da lista de anuncios elegiveis</text><polygon fill="#A80036" points="257.4,338.7152,263.4,341.1152,257.4,343.5152,259.8,341.1152" style="stroke: #A80036; stroke-width: 0.6;"/><line style="stroke: #A80036; stroke-width: 0.6;" x1="31.2" x2="261" y1="341.1152" y2="341.1152"/><text fill="#000000" font-family="sans-serif" font-size="7.8" font-weight="bold" lengthAdjust="spacingAndGlyphs" textLength="5.4" x="35.4" y="338.2699">8</text><text fill="#000000" font-family="sans-serif" font-size="7.8" lengthAdjust="spacingAndGlyphs" textLength="140.4" x="43.2" y="338.2699">iniciar candidatura a anuncio elegivel</text><polygon fill="#A80036" points="37.8,365.4879,31.8,367.8879,37.8,370.2879,35.4,367.8879" style="stroke: #A80036; stroke-width: 0.6;"/><line style="stroke: #A80036; stroke-width: 0.6; stroke-dasharray: 2.0,2.0;" x1="34.2" x2="267" y1="367.8879" y2="367.8879"/><text fill="#000000" font-family="sans-serif" font-size="7.8" font-weight="bold" lengthAdjust="spacingAndGlyphs" textLength="5.4" x="41.4" y="360.4494">9</text><text fill="#000000" font-family="sans-serif" font-size="7.8" lengthAdjust="spacingAndGlyphs" textLength="111" x="49.2" y="355.8563">solicita dados da candidatura</text><text fill="#000000" font-family="sans-serif" font-size="7.8" lengthAdjust="spacingAndGlyphs" textLength="176.4" x="49.2" y="365.0426">(valorPrt,nrDias,txtApresentacao,txtMotivacao)</text><polygon fill="#A80036" points="257.4,392.2605,263.4,394.6605,257.4,397.0605,259.8,394.6605" style="stroke: #A80036; stroke-width: 0.6;"/><line style="stroke: #A80036; stroke-width: 0.6;" x1="31.2" x2="261" y1="394.6605" y2="394.6605"/><text fill="#000000" font-family="sans-serif" font-size="7.8" font-weight="bold" lengthAdjust="spacingAndGlyphs" textLength="10.8" x="35.4" y="387.2221">10</text><text fill="#000000" font-family="sans-serif" font-size="7.8" lengthAdjust="spacingAndGlyphs" textLength="112.2" x="48.6" y="382.6289">introduz os dados solicitados</text><text fill="#000000" font-family="sans-serif" font-size="7.8" lengthAdjust="spacingAndGlyphs" textLength="129.6" x="48.6" y="391.8152">(valorPrt,nrDias,txtApres,txtMotiv)</text><polygon fill="#A80036" points="520.8,409.8469,526.8,412.2469,520.8,414.6469,523.2,412.2469" style="stroke: #A80036; stroke-width: 0.6;"/><line style="stroke: #A80036; stroke-width: 0.6;" x1="270.6" x2="524.4" y1="412.2469" y2="412.2469"/><text fill="#000000" font-family="sans-serif" font-size="7.8" font-weight="bold" lengthAdjust="spacingAndGlyphs" textLength="10.8" x="274.8" y="409.4016">11</text><text fill="#000000" font-family="sans-serif" font-size="7.8" lengthAdjust="spacingAndGlyphs" textLength="232.8" x="288" y="409.4016">novaCandidatura(anuncioId,valorPrt,nrDias,txtApres,txtMotiv)</text><polygon fill="#A80036" points="827.1,430.4332,833.1,432.8332,827.1,435.2332,829.5,432.8332" style="stroke: #A80036; stroke-width: 0.6;"/><line style="stroke: #A80036; stroke-width: 0.6;" x1="534" x2="830.7" y1="432.8332" y2="432.8332"/><text fill="#000000" font-family="sans-serif" font-size="7.8" font-weight="bold" lengthAdjust="spacingAndGlyphs" textLength="10.8" x="538.2" y="429.9879">12</text><text fill="#000000" font-family="sans-serif" font-size="7.8" lengthAdjust="spacingAndGlyphs" textLength="125.4" x="551.4" y="429.9879">anu = getAnuncioById(anuncioId)</text><path d="M843,420.0469 L843,435.0469 L1144.8,435.0469 L1144.8,426.0469 L1138.8,420.0469 L843,420.0469 " fill="#FBFB77" filter="url(#f1d70s77l8md0o)" style="stroke: #A80036; stroke-width: 0.6;"/><path d="M1138.8,420.0469 L1138.8,426.0469 L1144.8,426.0469 L1138.8,420.0469 " fill="#FBFB77" style="stroke: #A80036; stroke-width: 0.6;"/><text fill="#000000" font-family="sans-serif" font-size="7.8" lengthAdjust="spacingAndGlyphs" textLength="289.2" x="846.6" y="430.5879">O "anuncioId", no limite, pode corresponder à referência da tarefa associada.</text><polygon fill="#A80036" points="990.3,469.0195,996.3,471.4195,990.3,473.8195,992.7,471.4195" style="stroke: #A80036; stroke-width: 0.6;"/><line style="stroke: #A80036; stroke-width: 0.6;" x1="534" x2="993.9" y1="471.4195" y2="471.4195"/><text fill="#000000" font-family="sans-serif" font-size="7.8" font-weight="bold" lengthAdjust="spacingAndGlyphs" textLength="10.8" x="538.2" y="468.5742">13</text><text fill="#000000" font-family="sans-serif" font-size="7.8" lengthAdjust="spacingAndGlyphs" textLength="274.2" x="551.4" y="468.5742">cand=novaCandidatura(freel,dataCand,valorPrt,nrDias,txtApres,txtMotiv)</text><line style="stroke: #A80036; stroke-width: 0.6;" x1="1003.5" x2="1028.7" y1="489.0059" y2="489.0059"/><line style="stroke: #A80036; stroke-width: 0.6;" x1="1028.7" x2="1028.7" y1="489.0059" y2="496.8059"/><line style="stroke: #A80036; stroke-width: 0.6;" x1="1004.1" x2="1028.7" y1="496.8059" y2="496.8059"/><polygon fill="#A80036" points="1010.1,494.4059,1004.1,496.8059,1010.1,499.2059,1007.7,496.8059" style="stroke: #A80036; stroke-width: 0.6;"/><text fill="#000000" font-family="sans-serif" font-size="7.8" font-weight="bold" lengthAdjust="spacingAndGlyphs" textLength="10.8" x="1007.7" y="486.1605">14</text><text fill="#000000" font-family="sans-serif" font-size="7.8" lengthAdjust="spacingAndGlyphs" textLength="76.8" x="1020.9" y="486.1605">aceitaCandidaturas()</text><line style="stroke: #A80036; stroke-width: 0.6;" x1="1006.5" x2="1031.7" y1="514.3922" y2="514.3922"/><line style="stroke: #A80036; stroke-width: 0.6;" x1="1031.7" x2="1031.7" y1="514.3922" y2="522.1922"/><line style="stroke: #A80036; stroke-width: 0.6;" x1="1007.1" x2="1031.7" y1="522.1922" y2="522.1922"/><polygon fill="#A80036" points="1013.1,519.7922,1007.1,522.1922,1013.1,524.5922,1010.7,522.1922" style="stroke: #A80036; stroke-width: 0.6;"/><text fill="#000000" font-family="sans-serif" font-size="7.8" font-weight="bold" lengthAdjust="spacingAndGlyphs" textLength="10.8" x="1010.7" y="511.5469">15</text><text fill="#000000" font-family="sans-serif" font-size="7.8" lengthAdjust="spacingAndGlyphs" textLength="90.6" x="1023.9" y="511.5469">éFreelancerElegivel(free)</text><rect fill="#FFFFFF" filter="url(#f1d70s77l8md0o)" height="24.3727" style="stroke: #000000; stroke-width: 1.2;" width="112.2" x="976.2" y="544.9922"/><polygon fill="#EEEEEE" points="976.2,544.9922,1014.6,544.9922,1014.6,549.1922,1008.6,555.1922,976.2,555.1922,976.2,544.9922" style="stroke: #000000; stroke-width: 1.2;"/><text fill="#000000" font-family="sans-serif" font-size="7.8" font-weight="bold" lengthAdjust="spacingAndGlyphs" textLength="11.4" x="984" y="553.7332">ref</text><text fill="#000000" font-family="sans-serif" font-size="7.8" lengthAdjust="spacingAndGlyphs" textLength="107.4" x="979.8" y="565.1332">SD_éFreelancerElegivel(freel)</text><polygon fill="#A80036" points="1295.1,582.7512,1301.1,585.1512,1295.1,587.5512,1297.5,585.1512" style="stroke: #A80036; stroke-width: 0.6;"/><line style="stroke: #A80036; stroke-width: 0.6;" x1="1003.5" x2="1298.7" y1="585.1512" y2="585.1512"/><text fill="#000000" font-family="sans-serif" font-size="7.8" font-weight="bold" lengthAdjust="spacingAndGlyphs" textLength="10.8" x="1007.7" y="582.3059">16</text><text fill="#000000" font-family="sans-serif" font-size="7.8" lengthAdjust="spacingAndGlyphs" textLength="274.2" x="1020.9" y="582.3059">cand=novaCandidatura(freel,dataCand,valorPrt,nrDias,txtApres,txtMotiv)</text><polygon fill="#A80036" points="1538.1,600.3375,1544.1,602.7375,1538.1,605.1375,1540.5,602.7375" style="stroke: #A80036; stroke-width: 0.6;"/><line style="stroke: #A80036; stroke-width: 0.6; stroke-dasharray: 2.0,2.0;" x1="1308.3" x2="1541.7" y1="602.7375" y2="602.7375"/><text fill="#000000" font-family="sans-serif" font-size="7.8" font-weight="bold" lengthAdjust="spacingAndGlyphs" textLength="10.8" x="1312.5" y="599.8922">17</text><text fill="#000000" font-family="sans-serif" font-size="7.8" lengthAdjust="spacingAndGlyphs" textLength="209.4" x="1325.7" y="599.8922">create(freel,dataCand,valorPrt,nrDias,txtApres,txtMotiv)</text><rect fill="#FEFECE" filter="url(#f1d70s77l8md0o)" height="28.1859" style="stroke: #A80036; stroke-width: 0.8999999999999999;" width="59.4" x="1545.3" y="589.9512"/><text fill="#000000" font-family="sans-serif" font-size="8.4" lengthAdjust="spacingAndGlyphs" textLength="22.2" x="1563.9" y="602.2723">cand:</text><text fill="#000000" font-family="sans-serif" font-size="8.4" lengthAdjust="spacingAndGlyphs" textLength="51" x="1549.5" y="612.1652">Candidatura</text><polygon fill="#A80036" points="1298.1,637.5234,1304.1,639.9234,1298.1,642.3234,1300.5,639.9234" style="stroke: #A80036; stroke-width: 0.6;"/><line style="stroke: #A80036; stroke-width: 0.6;" x1="1000.5" x2="1301.7" y1="639.9234" y2="639.9234"/><text fill="#000000" font-family="sans-serif" font-size="7.8" font-weight="bold" lengthAdjust="spacingAndGlyphs" textLength="10.8" x="1004.7" y="637.0781">18</text><text fill="#000000" font-family="sans-serif" font-size="7.8" lengthAdjust="spacingAndGlyphs" textLength="90.6" x="1017.9" y="637.0781">validaCandidatura(cand)</text><polygon fill="#A80036" points="37.8,655.1098,31.8,657.5098,37.8,659.9098,35.4,657.5098" style="stroke: #A80036; stroke-width: 0.6;"/><line style="stroke: #A80036; stroke-width: 0.6; stroke-dasharray: 2.0,2.0;" x1="34.2" x2="267" y1="657.5098" y2="657.5098"/><text fill="#000000" font-family="sans-serif" font-size="7.8" font-weight="bold" lengthAdjust="spacingAndGlyphs" textLength="10.8" x="41.4" y="654.6645">19</text><text fill="#000000" font-family="sans-serif" font-size="7.8" lengthAdjust="spacingAndGlyphs" textLength="205.8" x="54.6" y="654.6645">apresenta dados da candidatura e solicita confirmacao</text><polygon fill="#A80036" points="257.4,672.6961,263.4,675.0961,257.4,677.4961,259.8,675.0961" style="stroke: #A80036; stroke-width: 0.6;"/><line style="stroke: #A80036; stroke-width: 0.6;" x1="31.2" x2="261" y1="675.0961" y2="675.0961"/><text fill="#000000" font-family="sans-serif" font-size="7.8" font-weight="bold" lengthAdjust="spacingAndGlyphs" textLength="10.8" x="35.4" y="672.2508">20</text><text fill="#000000" font-family="sans-serif" font-size="7.8" lengthAdjust="spacingAndGlyphs" textLength="117" x="48.6" y="672.2508">confirma dados da candidatura</text><polygon fill="#A80036" points="520.8,690.2824,526.8,692.6824,520.8,695.0824,523.2,692.6824" style="stroke: #A80036; stroke-width: 0.6;"/><line style="stroke: #A80036; stroke-width: 0.6;" x1="270.6" x2="524.4" y1="692.6824" y2="692.6824"/><text fill="#000000" font-family="sans-serif" font-size="7.8" font-weight="bold" lengthAdjust="spacingAndGlyphs" textLength="10.8" x="274.8" y="689.8371">21</text><text fill="#000000" font-family="sans-serif" font-size="7.8" lengthAdjust="spacingAndGlyphs" textLength="76.2" x="288" y="689.8371">registaCandidatura()</text><polygon fill="#A80036" points="990.3,707.8688,996.3,710.2688,990.3,712.6687,992.7,710.2688" style="stroke: #A80036; stroke-width: 0.6;"/><line style="stroke: #A80036; stroke-width: 0.6;" x1="534" x2="993.9" y1="710.2688" y2="710.2688"/><text fill="#000000" font-family="sans-serif" font-size="7.8" font-weight="bold" lengthAdjust="spacingAndGlyphs" textLength="10.8" x="538.2" y="707.4234">22</text><text fill="#000000" font-family="sans-serif" font-size="7.8" lengthAdjust="spacingAndGlyphs" textLength="94.2" x="551.4" y="707.4234">registaCandidatura(cand)</text><line style="stroke: #A80036; stroke-width: 0.6;" x1="1003.5" x2="1028.7" y1="727.8551" y2="727.8551"/><line style="stroke: #A80036; stroke-width: 0.6;" x1="1028.7" x2="1028.7" y1="727.8551" y2="735.6551"/><line style="stroke: #A80036; stroke-width: 0.6;" x1="1004.1" x2="1028.7" y1="735.6551" y2="735.6551"/><polygon fill="#A80036" points="1010.1,733.2551,1004.1,735.6551,1010.1,738.0551,1007.7,735.6551" style="stroke: #A80036; stroke-width: 0.6;"/><text fill="#000000" font-family="sans-serif" font-size="7.8" font-weight="bold" lengthAdjust="spacingAndGlyphs" textLength="10.8" x="1007.7" y="725.0098">23</text><text fill="#000000" font-family="sans-serif" font-size="7.8" lengthAdjust="spacingAndGlyphs" textLength="76.8" x="1020.9" y="725.0098">aceitaCandidaturas()</text><line style="stroke: #A80036; stroke-width: 0.6;" x1="1003.5" x2="1028.7" y1="753.2414" y2="753.2414"/><line style="stroke: #A80036; stroke-width: 0.6;" x1="1028.7" x2="1028.7" y1="753.2414" y2="761.0414"/><line style="stroke: #A80036; stroke-width: 0.6;" x1="1004.1" x2="1028.7" y1="761.0414" y2="761.0414"/><polygon fill="#A80036" points="1010.1,758.6414,1004.1,761.0414,1010.1,763.4414,1007.7,761.0414" style="stroke: #A80036; stroke-width: 0.6;"/><text fill="#000000" font-family="sans-serif" font-size="7.8" font-weight="bold" lengthAdjust="spacingAndGlyphs" textLength="10.8" x="1007.7" y="750.3961">24</text><text fill="#000000" font-family="sans-serif" font-size="7.8" lengthAdjust="spacingAndGlyphs" textLength="93" x="1020.9" y="750.3961">éFreelancerElegivel(freel)</text><polygon fill="#A80036" points="1295.1,776.2277,1301.1,778.6277,1295.1,781.0277,1297.5,778.6277" style="stroke: #A80036; stroke-width: 0.6;"/><line style="stroke: #A80036; stroke-width: 0.6;" x1="1000.5" x2="1298.7" y1="778.6277" y2="778.6277"/><text fill="#000000" font-family="sans-serif" font-size="7.8" font-weight="bold" lengthAdjust="spacingAndGlyphs" textLength="10.8" x="1004.7" y="775.7824">25</text><text fill="#000000" font-family="sans-serif" font-size="7.8" lengthAdjust="spacingAndGlyphs" textLength="94.2" x="1017.9" y="775.7824">registaCandidatura(cand)</text><line style="stroke: #A80036; stroke-width: 0.6;" x1="1308.3" x2="1333.5" y1="796.2141" y2="796.2141"/><line style="stroke: #A80036; stroke-width: 0.6;" x1="1333.5" x2="1333.5" y1="796.2141" y2="804.0141"/><line style="stroke: #A80036; stroke-width: 0.6;" x1="1308.9" x2="1333.5" y1="804.0141" y2="804.0141"/><polygon fill="#A80036" points="1314.9,801.6141,1308.9,804.0141,1314.9,806.4141,1312.5,804.0141" style="stroke: #A80036; stroke-width: 0.6;"/><text fill="#000000" font-family="sans-serif" font-size="7.8" font-weight="bold" lengthAdjust="spacingAndGlyphs" textLength="10.8" x="1312.5" y="793.3688">26</text><text fill="#000000" font-family="sans-serif" font-size="7.8" lengthAdjust="spacingAndGlyphs" textLength="89.4" x="1325.7" y="793.3688">validacandidatura(cand)</text><line style="stroke: #A80036; stroke-width: 0.6;" x1="1308.3" x2="1333.5" y1="821.6004" y2="821.6004"/><line style="stroke: #A80036; stroke-width: 0.6;" x1="1333.5" x2="1333.5" y1="821.6004" y2="829.4004"/><line style="stroke: #A80036; stroke-width: 0.6;" x1="1308.9" x2="1333.5" y1="829.4004" y2="829.4004"/><polygon fill="#A80036" points="1314.9,827.0004,1308.9,829.4004,1314.9,831.8004,1312.5,829.4004" style="stroke: #A80036; stroke-width: 0.6;"/><text fill="#000000" font-family="sans-serif" font-size="7.8" font-weight="bold" lengthAdjust="spacingAndGlyphs" textLength="10.8" x="1312.5" y="818.7551">27</text><text fill="#000000" font-family="sans-serif" font-size="7.8" lengthAdjust="spacingAndGlyphs" textLength="82.2" x="1325.7" y="818.7551">addCandidatura(cand)</text><polygon fill="#A80036" points="37.8,844.5867,31.8,846.9867,37.8,849.3867,35.4,846.9867" style="stroke: #A80036; stroke-width: 0.6;"/><line style="stroke: #A80036; stroke-width: 0.6; stroke-dasharray: 2.0,2.0;" x1="34.2" x2="267" y1="846.9867" y2="846.9867"/><text fill="#000000" font-family="sans-serif" font-size="7.8" font-weight="bold" lengthAdjust="spacingAndGlyphs" textLength="10.8" x="41.4" y="844.1414">28</text><text fill="#000000" font-family="sans-serif" font-size="7.8" lengthAdjust="spacingAndGlyphs" textLength="122.4" x="54.6" y="844.1414">informa do sucesso da operacao</text><!--MD5=[84adf06647d2d582317daa5815168bca]
@startuml
autonumber

actor "Freelancer" as FRL
participant ":EfectuarCandidaturaUI" as UI
participant ":EfectuarCandidaturaController" as CTRL
participant ":Plataforma" as PLAT
participant "rfree:\nRegistoFreelancer" as RFREEL
participant "ranu:\nRegistoAnuncios" as RANU
participant "listaAnu:\n List<Anuncios>" as LSTAE
participant "anu:\nAnuncio" as ANUN
participant "freel:\nFreelancer" as FREEL
participant ":ListaCandidaturas" as LCAND
participant "cand:\nCandidatura" as CAND


note right of LCAND
este objeto pertence ao anúncio
indicado como "anu:Anuncio"
end note

activate FRL
FRL -> UI : inicia efectuar candidatura
activate UI

UI -> CTRL : listaAnu = getAnunciosElegiveisDoFreelancer()
activate CTRL

CTRL -> PLAT: rfree = getRegistoFreelancers()
activate PLAT
deactivate PLAT

CTRL -> RFREEL : freel=getFreelancerByEmail(email)
note right
O email foi obtido através do objeto
SessaoUtilizador como demonstrado noutros diagramas.
end note
activate RFREEL
deactivate RFREEL

CTRL -> PLAT: ranu = getRegistoAnuncios()
activate PLAT
deactivate PLAT

CTRL -> RANU : listaAnu=getAnunciosElegiveisDoFreelancer(freel)
activate RANU
ref over RANU : SD_getAnunciosElegiveisDoFreelancer(freel)
deactivate RANU
deactivate CTRL

UI - -> FRL : seleccionar anuncio da lista de anuncios elegiveis
deactivate UI
FRL -> UI : iniciar candidatura a anuncio elegivel
activate UI
UI - -> FRL : solicita dados da candidatura \n(valorPrt,nrDias,txtApresentacao,txtMotivacao)
deactivate UI

FRL -> UI : introduz os dados solicitados \n(valorPrt,nrDias,txtApres,txtMotiv)
activate UI
UI -> CTRL : novaCandidatura(anuncioId,valorPrt,nrDias,txtApres,txtMotiv)
activate CTRL

CTRL -> RANU: anu = getAnuncioById(anuncioId)
activate RANU
note right
O "anuncioId", no limite, pode corresponder à referência da tarefa associada.
end note
deactivate RANU

CTRL -> ANUN: cand=novaCandidatura(freel,dataCand,valorPrt,nrDias,txtApres,txtMotiv)
activate ANUN
ANUN -> ANUN: aceitaCandidaturas()
ANUN -> ANUN: éFreelancerElegivel(free)
activate ANUN
ref over ANUN : SD_éFreelancerElegivel(freel)
deactivate ANUN
ANUN -> LCAND: cand=novaCandidatura(freel,dataCand,valorPrt,nrDias,txtApres,txtMotiv)
activate LCAND
LCAND - -> CAND**: create(freel,dataCand,valorPrt,nrDias,txtApres,txtMotiv)
ANUN -> LCAND: validaCandidatura(cand)
deactivate LCAND
deactivate ANUN
deactivate CTRL
UI - -> FRL : apresenta dados da candidatura e solicita confirmacao
deactivate UI

FRL -> UI : confirma dados da candidatura
activate UI
UI -> CTRL: registaCandidatura()
activate CTRL
CTRL -> ANUN: registaCandidatura(cand)
activate ANUN
ANUN -> ANUN: aceitaCandidaturas()
ANUN -> ANUN: éFreelancerElegivel(freel)
ANUN -> LCAND: registaCandidatura(cand)
deactivate ANUN
activate LCAND
LCAND -> LCAND: validacandidatura(cand)
LCAND -> LCAND: addCandidatura(cand)
UI - -> FRL: informa do sucesso da operacao
deactivate LCAND
deactivate CTRL
deactivate UI

@enduml

PlantUML version 1.2020.07(Sun Apr 19 12:42:40 WEST 2020)
(GPL source distribution)
Java Runtime: OpenJDK Runtime Environment
JVM: OpenJDK 64-Bit Server VM
Java Version: 11.0.6+8-b765.25
Operating System: Mac OS X
Default Encoding: UTF-8
Language: en
Country: PT
--></g></svg>